Can Mapping in R Be This Easy?
…
2 How Do I Know What Geographies or Variables I Want?

https://walkerke.github.io/tidycensus/articles/basic-usage.html

This part can be really tricky, and I havent fully developed straightforward workflows.

2.1 Reading Census Indicators Into A Data File

library(tidycensus)

v17 <- load_variables(2017, "acs5", cache = TRUE)

v17 # replay

## # A tibble: 25,070 x 3
##    name       label                           concept                           
##    <chr>      <chr>                           <chr>                             
##  1 B00001_001 Estimate!!Total                 UNWEIGHTED SAMPLE COUNT OF THE PO
##  2 B00002_001 Estimate!!Total                 UNWEIGHTED SAMPLE HOUSING UNITS   
##  3 B01001_001 Estimate!!Total                 SEX BY AGE                        
##  4 B01001_002 Estimate!!Total!!Male           SEX BY AGE                        
##  5 B01001_003 Estimate!!Total!!Male!!Under 5 SEX BY AGE                        
##  6 B01001_004 Estimate!!Total!!Male!!5 to 9  SEX BY AGE                        
##  7 B01001_005 Estimate!!Total!!Male!!10 to 1 SEX BY AGE                        
##  8 B01001_006 Estimate!!Total!!Male!!15 to 1 SEX BY AGE                        
##  9 B01001_007 Estimate!!Total!!Male!!18 and  SEX BY AGE                        
## 10 B01001_008 Estimate!!Total!!Male!!20 years SEX BY AGE                        
## #  with 25,060 more rows
…
